<?xml version="1.0" encoding="UTF-8"?>
<svg data-name="Layer 1" viewBox="0 0 64 64" xmlns="http://www.w3.org/2000/svg">
<circle cx="15.35" cy="18.22" r="12.49" fill="#dee3e7" stroke="#3c3b72" stroke-linecap="round" stroke-linejoin="round" stroke-width="3"/>
<path d="M20.2,23.12a15.76,15.76,0,0,1,31.24.22h0a12.27,12.27,0,0,1-2.56,24.27H19.17a12.27,12.27,0,0,1,0-24.54c.35,0,.69,0,1,.05" fill="#c4c8d1" stroke="#3c3b72" stroke-linecap="round" stroke-linejoin="round" stroke-width="3"/>
<line x1="34.5" x2="30.72" y1="53.52" y2="58.27" fill="none" stroke="#3c3b72" stroke-linecap="round" stroke-linejoin="round" stroke-width="3"/>
<line x1="47.52" x2="43.74" y1="53.52" y2="58.27" fill="none" stroke="#3c3b72" stroke-linecap="round" stroke-linejoin="round" stroke-width="3"/>
<line x1="22.31" x2="18.52" y1="53.52" y2="58.27" fill="none" stroke="#3c3b72" stroke-linecap="round" stroke-linejoin="round" stroke-width="3"/>
</svg>
