<?xml version="1.0" encoding="UTF-8"?>
<svg data-name="Layer 1" viewBox="0 0 64 64" xmlns="http://www.w3.org/2000/svg">
<path d="m18.18 20.44a15.76 15.76 0 0 1 31.23 0.23h0a12.26 12.26 0 0 1-2.56 24.26h-29.7a12.27 12.27 0 1 1 0-24.53h1" fill="#c4c8d1" stroke="#3c3b72" stroke-linecap="round" stroke-linejoin="round" stroke-width="3"/>
<circle cx="45" cy="50.82" r="1.51" fill="#3c3b72"/>
<circle cx="32" cy="50.82" r="1.51" fill="#3c3b72"/>
<circle cx="19" cy="50.82" r="1.51" fill="#3c3b72"/>
<circle cx="38.04" cy="55.6" r="1.49" fill="#3c3b72"/>
<circle cx="25.04" cy="55.6" r="1.49" fill="#3c3b72"/>
</svg>
