<?xml version="1.0" encoding="UTF-8"?>
<svg data-name="Layer 1" viewBox="0 0 64 64" xmlns="http://www.w3.org/2000/svg">
<path d="m18.18 26.52a15.76 15.76 0 0 1 31.23 0.22h0a12.27 12.27 0 0 1-2.55 24.26h-29.72a12.27 12.27 0 0 1 0-24.53h1" fill="#c4c8d1" stroke="#3c3b72" stroke-linecap="round" stroke-linejoin="round" stroke-width="3"/>
</svg>
